{
    "fluentMethods": true,
    "relationships": [
        {
            "relationshipType": "many-to-one",
            "relationshipValidateRules": "required",
            "relationshipName": "order",
            "otherEntityName": "order",
            "otherEntityField": "code"
        }
    ],
    "fields": [
        {
            "fieldName": "productId",
            "fieldType": "Long",
            "fieldValidateRules": [
                "required"
            ]
        },
        {
            "fieldName": "productCode",
            "fieldType": "String",
            "fieldValidateRules": [
                "required",
                "maxlength"
            ],
            "fieldValidateRulesMaxlength": 40
        },
        {
            "fieldName": "productName",
            "fieldType": "String",
            "fieldValidateRules": [
                "required",
                "maxlength"
            ],
            "fieldValidateRulesMaxlength": 40
        },
        {
            "fieldName": "price",
            "fieldType": "BigDecimal",
            "fieldValidateRules": [
                "required",
                "min"
            ],
            "fieldValidateRulesMin": 0
        },
        {
            "fieldName": "quantity",
            "fieldType": "BigDecimal",
            "fieldValidateRules": [
                "required",
                "min"
            ],
            "fieldValidateRulesMin": 0
        }
    ],
    "changelogDate": "20170329032426",
    "entityTableName": "ord_order_item",
    "dto": "mapstruct",
    "pagination": "pagination",
    "microserviceName": "mallServiceOrder",
    "service": "no"
}